{
  "project_info": {
    "project_number": "387493465502",
    "firebase_url": "https://push-fb81f.firebaseio.com",
    "project_id": "push-fb81f",
    "storage_bucket": "push-fb81f.appspot.com"
  },
  "client": [
    {
      "client_info": {
        "mobilesdk_app_id": "1:387493465502:android:cf4ac11cd43ac29761da8f",
        "android_client_info": {
          "package_name": "com.betterauthenticator"
        }
      },
      "oauth_client": [
        {
          "client_id": "387493465502-k0rqotp76iuhl0g5anbrmr4aoa82ja24.apps.googleusercontent.com",
          "client_type": 3
        }
      ],
      "api_key": [
        {
          "current_key": "AIzaSyBU5IyRV-06IsbaaHjvjZZfKMFaTf15VWk"
        }
      ],
      "services": {
        "appinvite_service": {
          "other_platform_oauth_client": [
            {
              "client_id": "387493465502-k0rqotp76iuhl0g5anbrmr4aoa82ja24.apps.googleusercontent.com",
              "client_type": 3
            }
          ]
        }
      }
    },
    {
      "client_info": {
        "mobilesdk_app_id": "1:387493465502:android:0be418bc1766d40e61da8f",
        "android_client_info": {
          "package_name": "com.pubnubchatwithreactnative"
        }
      },
      "oauth_client": [
        {
          "client_id": "387493465502-k0rqotp76iuhl0g5anbrmr4aoa82ja24.apps.googleusercontent.com",
          "client_type": 3
        }
      ],
      "api_key": [
        {
          "current_key": "AIzaSyBU5IyRV-06IsbaaHjvjZZfKMFaTf15VWk"
        }
      ],
      "services": {
        "appinvite_service": {
          "other_platform_oauth_client": [
            {
              "client_id": "387493465502-k0rqotp76iuhl0g5anbrmr4aoa82ja24.apps.googleusercontent.com",
              "client_type": 3
            }
          ]
        }
      }
    },
    {
      "client_info": {
        "mobilesdk_app_id": "1:387493465502:android:0e898c8e7ab3407e61da8f",
        "android_client_info": {
          "package_name": "com.sampleproject"
        }
      },
      "oauth_client": [
        {
          "client_id": "387493465502-k0rqotp76iuhl0g5anbrmr4aoa82ja24.apps.googleusercontent.com",
          "client_type": 3
        }
      ],
      "api_key": [
        {
          "current_key": "AIzaSyBU5IyRV-06IsbaaHjvjZZfKMFaTf15VWk"
        }
      ],
      "services": {
        "appinvite_service": {
          "other_platform_oauth_client": [
            {
              "client_id": "387493465502-k0rqotp76iuhl0g5anbrmr4aoa82ja24.apps.googleusercontent.com",
              "client_type": 3
            }
          ]
        }
      }
    }
  ],
  "configuration_version": "1"
}